# Fdb version 3
["bibtex ApostilaSocket"] 1504120408 "ApostilaSocket.aux" "ApostilaSocket.bbl" "ApostilaSocket" 1504120755
  "/usr/share/texlive/texmf-dist/bibtex/bst/base/acm.bst" 1292289607 21064 c61a48664f3c347ce7f73c1a6a530506 ""
  "ApostilaSocket.aux" 1504120410 10890 51365fe4baa7595400064dad386f5770 ""
  "ApostilaSocket.bcf" 0 -1 0 ""
  "ApostilaSocket.bib" 1503951555 657 3325302fe14b89588cc2f5f644c14a5f ""
  (generated)
  "ApostilaSocket.bbl"
  "ApostilaSocket.blg"
["pdflatex"] 1504120409 "ApostilaSocket.tex" "ApostilaSocket.pdf" "ApostilaSocket" 1504120755
  "/etc/texmf/web2c/texmf.cnf" 1496685307 1101 af7716885e081ab43982cab7b4672c1a ""
  "/usr/share/texlive/texmf-dist/fonts/map/fontname/texfonts.map" 1272929888 3287 e6b82fe08f5336d4d5ebc73fb1152e87 ""
  "/usr/share/texlive/texmf-dist/fonts/tfm/jknappen/ec/ecrm1200.tfm" 1136768653 3584 f80ddd985bd00e29e9a6047ebd9d4781 ""
  "/usr/share/texlive/texmf-dist/fonts/tfm/public/cm/cmr12.tfm" 1136768653 1288 655e228510b4c2a1abe905c368440826 ""
  "/usr/share/texlive/texmf-dist/fonts/tfm/public/cm/cmsy10.tfm" 1136768653 1124 6c73e740cf17375f03eec0ee63599741 ""
  "/usr/share/texlive/texmf-dist/fonts/type1/public/amsfonts/cm/cmsy10.pfb" 1248133631 32569 5e5ddc8df908dea60932f3c484a54c0d ""
  "/usr/share/texlive/texmf-dist/tex/context/base/supp-pdf.mkii" 1337017135 71627 94eb9990bed73c364d7f53f960cc8c5b ""
  "/usr/share/texlive/texmf-dist/tex/generic/babel-portuges/portuges.ldf" 1367878976 6605 2bd2937f1ce929b4a1367cc2d320364e ""
  "/usr/share/texlive/texmf-dist/tex/generic/babel/babel.def" 1411763270 49725 b40154b767b0073ee42b35911042b793 ""
  "/usr/share/texlive/texmf-dist/tex/generic/babel/babel.sty" 1411763270 13212 dc56c11a26f3ea97bcf005eeda274583 ""
  "/usr/share/texlive/texmf-dist/tex/generic/ifxetex/ifxetex.sty" 1284331290 1458 43ab4710dc82f3edeabecd0d099626b2 ""
  "/usr/share/texlive/texmf-dist/tex/generic/oberdiek/gettitlestring.sty" 1303254447 8237 52810bdb4db2270e717422560a104aea ""
  "/usr/share/texlive/texmf-dist/tex/generic/oberdiek/hobsub-generic.sty" 1338332114 189108 8b3553a56c83ff61acecb36b75d817e2 ""
  "/usr/share/texlive/texmf-dist/tex/generic/oberdiek/hobsub-hyperref.sty" 1338332114 70752 45fa392800e07da61fa13446ad46b34d ""
  "/usr/share/texlive/texmf-dist/tex/generic/oberdiek/infwarerr.sty" 1335995445 8253 3bdedc8409aa5d290a2339be6f09af03 ""
  "/usr/share/texlive/texmf-dist/tex/generic/oberdiek/ltxcmds.sty" 1335995445 18425 775b341047ce304520cc7c11ca41392e ""
  "/usr/share/texlive/texmf-dist/tex/generic/pgf/basiclayer/pgfcore.code.tex" 1288312291 1006 b103be0bfc8c1682ff1fa9760697a329 ""
  "/usr/share/texlive/texmf-dist/tex/generic/pgf/basiclayer/pgfcorearrows.code.tex" 1393459310 42678 ea82fd948b4303ce6a2c8e25d5e8f8aa ""
  "/usr/share/texlive/texmf-dist/tex/generic/pgf/basiclayer/pgfcoreexternal.code.tex" 1393459310 19287 b2041c22301def2360f03c004d16068d ""
  "/usr/share/texlive/texmf-dist/tex/generic/pgf/basiclayer/pgfcoregraphicstate.code.tex" 1393459310 6653 6c617c4a5106d9f40e3d70946ba4e0ac ""
  "/usr/share/texlive/texmf-dist/tex/generic/pgf/basiclayer/pgfcoreimage.code.tex" 1393459310 7041 a891ad72049e17c4e366c40ca37b0ccb ""
  "/usr/share/texlive/texmf-dist/tex/generic/pgf/basiclayer/pgfcorelayers.code.tex" 1393459310 4625 40c07e9f6f2f7c674704b3f2055560ce ""
  "/usr/share/texlive/texmf-dist/tex/generic/pgf/basiclayer/pgfcoreobjects.code.tex" 1203877327 2631 7eefa6cdbefd8d4e2bad7262cf1094cd ""
  "/usr/share/texlive/texmf-dist/tex/generic/pgf/basiclayer/pgfcorepathconstruct.code.tex" 1393459310 43477 81143b33d9ebafdeead07ede13372427 ""
  "/usr/share/texlive/texmf-dist/tex/generic/pgf/basiclayer/pgfcorepathprocessing.code.tex" 1393459310 17436 8d99d4113be311daf23deff86991ee7d ""
  "/usr/share/texlive/texmf-dist/tex/generic/pgf/basiclayer/pgfcorepathusage.code.tex" 1393459310 20857 256da99fc70ea570aad1d50fdfd51464 ""
  "/usr/share/texlive/texmf-dist/tex/generic/pgf/basiclayer/pgfcorepatterns.code.tex" 1393459310 9641 711f0edc22c180a5caf168b6e8970057 ""
  "/usr/share/texlive/texmf-dist/tex/generic/pgf/basiclayer/pgfcorepoints.code.tex" 1393459310 34516 658a71478d21df554bce9d9cd436203a ""
  "/usr/share/texlive/texmf-dist/tex/generic/pgf/basiclayer/pgfcorequick.code.tex" 1288312291 3052 e5672c657232fd63b0a9853b0746297c ""
  "/usr/share/texlive/texmf-dist/tex/generic/pgf/basiclayer/pgfcorescopes.code.tex" 1393459310 16849 86fed972a2b3ad61208a6422e104bf26 ""
  "/usr/share/texlive/texmf-dist/tex/generic/pgf/basiclayer/pgfcoreshade.code.tex" 1393459310 21541 4cd19f8ff7dd74d5aa7d803a6397af84 ""
  "/usr/share/texlive/texmf-dist/tex/generic/pgf/basiclayer/pgfcoretransformations.code.tex" 1393459310 17423 a0f09c822b83b65445bc3ac25542dcc6 ""
  "/usr/share/texlive/texmf-dist/tex/generic/pgf/basiclayer/pgfcoretransparency.code.tex" 1393459310 8943 2e2495b057f8f0035b5568394d489963 ""
  "/usr/share/texlive/texmf-dist/tex/generic/pgf/frontendlayer/tikz/libraries/tikzlibraryarrows.code.tex" 1203727794 437 cf40f841f40822be6cb995f8b47112fd ""
  "/usr/share/texlive/texmf-dist/tex/generic/pgf/frontendlayer/tikz/libraries/tikzlibrarybackgrounds.code.tex" 1393459310 4611 b858a4e5bd5442802c91a13027dc25bb ""
  "/usr/share/texlive/texmf-dist/tex/generic/pgf/frontendlayer/tikz/libraries/tikzlibrarycalc.code.tex" 1393459310 15934 b941bd3ae7b33179029513707d1f0ff6 ""
  "/usr/share/texlive/texmf-dist/tex/generic/pgf/frontendlayer/tikz/libraries/tikzlibrarypatterns.code.tex" 1203727794 884 60c3d56b80194544f9ecdae97dd5e286 ""
  "/usr/share/texlive/texmf-dist/tex/generic/pgf/frontendlayer/tikz/libraries/tikzlibrarypositioning.code.tex" 1288312291 4034 0a8cd33cf30d262ec971380666acb2d0 ""
  "/usr/share/texlive/texmf-dist/tex/generic/pgf/frontendlayer/tikz/libraries/tikzlibraryshapes.geometric.code.tex" 1203727794 457 ffe9f8b9d108b5f729fd86c78c63589a ""
  "/usr/share/texlive/texmf-dist/tex/generic/pgf/frontendlayer/tikz/libraries/tikzlibrarytopaths.code.tex" 1288312291 11599 d694704a88e2f9007c996d3a6a4d629c ""
  "/usr/share/texlive/texmf-dist/tex/generic/pgf/frontendlayer/tikz/tikz.code.tex" 1393459310 175287 31eb66e838dd5e10589736193a31943c ""
  "/usr/share/texlive/texmf-dist/tex/generic/pgf/libraries/pgflibraryarrows.code.tex" 1393459310 31927 7acd27f90dd95ce67ad32166cd0b95ec ""
  "/usr/share/texlive/texmf-dist/tex/generic/pgf/libraries/pgflibrarypatterns.code.tex" 1288312291 7874 56ca58561783fbca7be095fa7178e656 ""
  "/usr/share/texlive/texmf-dist/tex/generic/pgf/libraries/pgflibraryplothandlers.code.tex" 1393459310 32969 dbcfd5a7de6a0f7255c333ef60287d59 ""
  "/usr/share/texlive/texmf-dist/tex/generic/pgf/libraries/shapes/pgflibraryshapes.geometric.code.tex" 1288312291 132566 291d42c3b23fdb5c47e51b36a5fea0c4 ""
  "/usr/share/texlive/texmf-dist/tex/generic/pgf/math/pgfmath.code.tex" 1393459310 454 9e9e7c99f4da4f41698be21eaef4938e ""
  "/usr/share/texlive/texmf-dist/tex/generic/pgf/math/pgfmathcalc.code.tex" 1393459310 13416 940ea6971d7a65dc440d3479939c66ae ""
  "/usr/share/texlive/texmf-dist/tex/generic/pgf/math/pgfmathfloat.code.tex" 1393459310 91879 5b3cc8d94c47a5b742393a410f298724 ""
  "/usr/share/texlive/texmf-dist/tex/generic/pgf/math/pgfmathfunctions.base.code.tex" 1393459310 9375 5adc70f722abd29fc250d59e0694b548 ""
  "/usr/share/texlive/texmf-dist/tex/generic/pgf/math/pgfmathfunctions.basic.code.tex" 1393459310 21406 80daebd1f9f6a174d8dc77c5bc931bf4 ""
  "/usr/share/texlive/texmf-dist/tex/generic/pgf/math/pgfmathfunctions.code.tex" 1393459310 7820 5140d142921f39003e02ccedd072823a ""
  "/usr/share/texlive/texmf-dist/tex/generic/pgf/math/pgfmathfunctions.comparison.code.tex" 1288312291 3534 c7f28fbac13616513e513efe93b8569b ""
  "/usr/share/texlive/texmf-dist/tex/generic/pgf/math/pgfmathfunctions.integerarithmetics.code.tex" 1393459310 3167 7c9394e79aac27db96a92f9b2792b858 ""
  "/usr/share/texlive/texmf-dist/tex/generic/pgf/math/pgfmathfunctions.misc.code.tex" 1393459310 9165 99b6966558714c44c0b5ee44ae261ffc ""
  "/usr/share/texlive/texmf-dist/tex/generic/pgf/math/pgfmathfunctions.random.code.tex" 1288312291 6964 d4b5e82dabddda1c728063bb9c8a22ba ""
  "/usr/share/texlive/texmf-dist/tex/generic/pgf/math/pgfmathfunctions.round.code.tex" 1288312291 2688 139c6abc86761a6190c2f4bef5d752be ""
  "/usr/share/texlive/texmf-dist/tex/generic/pgf/math/pgfmathfunctions.trigonometric.code.tex" 1393459310 91075 1c1d7a7e8f0f737f72aa8becf0b37136 ""
  "/usr/share/texlive/texmf-dist/tex/generic/pgf/math/pgfmathparser.code.tex" 1393459310 33289 b041d55e91f7382603e2dca6f9ad188d ""
  "/usr/share/texlive/texmf-dist/tex/generic/pgf/math/pgfmathutil.code.tex" 1393459310 7099 f44d505bae6c7c2b933cdd63441db4b9 ""
  "/usr/share/texlive/texmf-dist/tex/generic/pgf/modules/pgfmodulematrix.code.tex" 1393459310 20934 2328bd2e04520e1ab077ac4ee13b8935 ""
  "/usr/share/texlive/texmf-dist/tex/generic/pgf/modules/pgfmoduleplot.code.tex" 1393459310 15785 e0b14c447df00370d2023fd5c9813190 ""
  "/usr/share/texlive/texmf-dist/tex/generic/pgf/modules/pgfmoduleshapes.code.tex" 1393459310 42336 b13cf09dc317c76a2b165a8501d871cf ""
  "/usr/share/texlive/texmf-dist/tex/generic/pgf/systemlayer/pgf.cfg" 1288312291 978 15af626ebd3d4d790aac19170dac04f2 ""
  "/usr/share/texlive/texmf-dist/tex/generic/pgf/systemlayer/pgfsys-common-pdf.def" 1393459310 5437 d91f93ed61ecdc57e119849b2d784a0b ""
  "/usr/share/texlive/texmf-dist/tex/generic/pgf/systemlayer/pgfsys-pdftex.def" 1393459310 11969 518d66d5b5e20471ba00709ef9c2b267 ""
  "/usr/share/texlive/texmf-dist/tex/generic/pgf/systemlayer/pgfsys.code.tex" 1393459310 34488 3bab2022cdd1acab0cd383d8a0ad641b ""
  "/usr/share/texlive/texmf-dist/tex/generic/pgf/systemlayer/pgfsysprotocol.code.tex" 1203877327 1983 b5994ebbcee17f1ba3d29bb1bd696fcf ""
  "/usr/share/texlive/texmf-dist/tex/generic/pgf/systemlayer/pgfsyssoftpath.code.tex" 1393459310 7881 d459d6057e13d10ce7a227ae44b7295e ""
  "/usr/share/texlive/texmf-dist/tex/generic/pgf/utilities/pgfcalendar.code.tex" 1203877327 21743 1212068473371dbb70ea813f4f0f2e5e ""
  "/usr/share/texlive/texmf-dist/tex/generic/pgf/utilities/pgffor.code.tex" 1393459310 22211 d696ef78c12269178882d218b2cf191d ""
  "/usr/share/texlive/texmf-dist/tex/generic/pgf/utilities/pgfkeys.code.tex" 1393459310 36194 e194ef4e0b396b531a3891feb4b1cc22 ""
  "/usr/share/texlive/texmf-dist/tex/generic/pgf/utilities/pgfkeysfiltered.code.tex" 1393459310 33377 af391d6ad1bfcbe2278e191f48e43ba8 ""
  "/usr/share/texlive/texmf-dist/tex/generic/pgf/utilities/pgfrcs.code.tex" 1393459310 2286 b5c392d27790ca52b8f8e510ef5044e0 ""
  "/usr/share/texlive/texmf-dist/tex/generic/pgf/utilities/pgfutil-common-lists.tex" 1393459310 6833 114eda2cf1d348e0e7e477a1a4dc1941 ""
  "/usr/share/texlive/texmf-dist/tex/generic/pgf/utilities/pgfutil-common.tex" 1393459310 16384 3fa06861c9a3391a75df39466f49655f ""
  "/usr/share/texlive/texmf-dist/tex/generic/pgf/utilities/pgfutil-latex.def" 1393459310 4500 b148f531c7670d59c695787be06a508b ""
  "/usr/share/texlive/texmf-dist/tex/latex/appendix/appendix.sty" 1252539595 8526 d0d9b5e2dd0c996c69c3bd05eb25b943 ""
  "/usr/share/texlive/texmf-dist/tex/latex/base/bk12.clo" 1488872290 8814 bbe30f25e3b0ec3d457a216d9dfc59c4 ""
  "/usr/share/texlive/texmf-dist/tex/latex/base/book.cls" 1488872290 23620 58eb57fd2df7a5aa2237f38d5657dd75 ""
  "/usr/share/texlive/texmf-dist/tex/latex/base/fontenc.sty" 1399675188 4360 ff7a73ddc57baaf1815161c4698e9fb4 ""
  "/usr/share/texlive/texmf-dist/tex/latex/base/inputenc.sty" 1399675188 5295 be5d5092b838cbeebda7de24a3ab9dd2 ""
  "/usr/share/texlive/texmf-dist/tex/latex/base/omsenc.dfu" 1488872290 1793 320b80f357f764e2948d0e936cfad6f9 ""
  "/usr/share/texlive/texmf-dist/tex/latex/base/ot1enc.dfu" 1488872290 2545 555803bf003cd3707853da983f96df47 ""
  "/usr/share/texlive/texmf-dist/tex/latex/base/t1enc.def" 1399675188 9097 3d740f5a942bdde0d974eb1398aae41c ""
  "/usr/share/texlive/texmf-dist/tex/latex/base/t1enc.dfu" 1488872290 7405 1ec6ceee22fd8064f4a510ce9c02c6f9 ""
  "/usr/share/texlive/texmf-dist/tex/latex/base/utf8.def" 1488872290 6275 d5cccabec4a8548b643c15bcf3741c28 ""
  "/usr/share/texlive/texmf-dist/tex/latex/enumitem/enumitem.sty" 1317339792 42666 6fa770e3485520a6a5f2ea7d259c8f8d ""
  "/usr/share/texlive/texmf-dist/tex/latex/graphics/epsfig.sty" 1156702488 3106 a896e5fe135d4485f72ce6c9d8459d2e ""
  "/usr/share/texlive/texmf-dist/tex/latex/graphics/graphics.sty" 1254151804 14183 42a8fc761b806986eef292369afc2988 ""
  "/usr/share/texlive/texmf-dist/tex/latex/graphics/graphicx.sty" 1399675188 7911 bf0a64f89bfb668c239ddf6324bf4afb ""
  "/usr/share/texlive/texmf-dist/tex/latex/graphics/keyval.sty" 1399675188 2317 0ace13e225e9d95dd9defe947adc9fbb ""
  "/usr/share/texlive/texmf-dist/tex/latex/graphics/trig.sty" 1156702488 3153 c50e6bd54d2dd3933fc52bcf369bec4a ""
  "/usr/share/texlive/texmf-dist/tex/latex/hyperref/hpdftex.def" 1352416072 51837 247bd8424b3835ef78c236dc1e0b4aef ""
  "/usr/share/texlive/texmf-dist/tex/latex/hyperref/hyperref.sty" 1352416072 231792 5fc9dc7dd667e773a766ecc63bba7f4b ""
  "/usr/share/texlive/texmf-dist/tex/latex/hyperref/nameref.sty" 1351899753 12847 25b617d63258c4f72870c883493a3cf8 ""
  "/usr/share/texlive/texmf-dist/tex/latex/hyperref/pd1enc.def" 1352416072 14005 155ac8fad2e5dd7c2cdd130fabd96633 ""
  "/usr/share/texlive/texmf-dist/tex/latex/latexconfig/color.cfg" 1254097189 802 7b8c8d72c24d795ed7720e4dfd29bff3 ""
  "/usr/share/texlive/texmf-dist/tex/latex/latexconfig/epstopdf-sys.cfg" 1279039959 678 4792914a8f45be57bb98413425e4c7af ""
  "/usr/share/texlive/texmf-dist/tex/latex/latexconfig/graphics.cfg" 1278958963 3563 d35e897cae3b8c6848f6677b73370b54 ""
  "/usr/share/texlive/texmf-dist/tex/latex/latexconfig/hyperref.cfg" 1254097189 235 6031e5765137be07eed51a510b2b8fb7 ""
  "/usr/share/texlive/texmf-dist/tex/latex/listings/listings.cfg" 1410123741 1828 ddc16c1fe1b992198f2f6db76c7605a1 ""
  "/usr/share/texlive/texmf-dist/tex/latex/listings/listings.sty" 1410123741 80361 986ecfb58a31c7520247f2b2ead09587 ""
  "/usr/share/texlive/texmf-dist/tex/latex/listings/lstlang1.sty" 1410123741 93444 0138f333d6d5318ba4266bb8d4ee3643 ""
  "/usr/share/texlive/texmf-dist/tex/latex/listings/lstmisc.sty" 1410123741 77029 f4782a67dce3ceeb4067191b5488d81d ""
  "/usr/share/texlive/texmf-dist/tex/latex/ms/everyshi.sty" 1177890616 3878 6aa7c08ff2621006e0603349e40a30a8 ""
  "/usr/share/texlive/texmf-dist/tex/latex/multirow/multirow.sty" 1137110401 7374 f7c1f13fc632dd5c9b220a247d233082 ""
  "/usr/share/texlive/texmf-dist/tex/latex/oberdiek/auxhook.sty" 1303254447 3834 707ef09f31d7d2ea47ba89974755dfe0 ""
  "/usr/share/texlive/texmf-dist/tex/latex/oberdiek/epstopdf-base.sty" 1303254447 12029 04d7fdf76e0464c23b5aa3a727952d7c ""
  "/usr/share/texlive/texmf-dist/tex/latex/oberdiek/grfext.sty" 1335995445 7075 bd0c34fbf1ae8fd1debd2a554e41b2d5 ""
  "/usr/share/texlive/texmf-dist/tex/latex/oberdiek/kvoptions.sty" 1335995445 22417 c74ff4af6a1aa2b65d1924020edbbe11 ""
  "/usr/share/texlive/texmf-dist/tex/latex/oberdiek/picture.sty" 1303254447 5769 5d42d65e855cb1efcbd1852c5d771881 ""
  "/usr/share/texlive/texmf-dist/tex/latex/oberdiek/rerunfilecheck.sty" 1303254447 9581 1158efc648bc09d5064db5703c882159 ""
  "/usr/share/texlive/texmf-dist/tex/latex/pdftex-def/pdftex.def" 1306616590 55368 3c8a0d99822330f2dfabc0dfb09ce897 ""
  "/usr/share/texlive/texmf-dist/tex/latex/pgf/basiclayer/pgf.sty" 1393459310 1190 4e20f1d26da9f86ba6a50d7ad16c48d2 ""
  "/usr/share/texlive/texmf-dist/tex/latex/pgf/basiclayer/pgfcore.sty" 1288312291 410 5bf12ea7330e5f12c445332a4fe9a263 ""
  "/usr/share/texlive/texmf-dist/tex/latex/pgf/compatibility/pgfcomp-version-0-65.sty" 1203877327 21115 facf03b7dbe5ea2f5f1dce1ac84b5d05 ""
  "/usr/share/texlive/texmf-dist/tex/latex/pgf/compatibility/pgfcomp-version-1-18.sty" 1203727794 1091 d9163d29def82ee90370c8a63667742c ""
  "/usr/share/texlive/texmf-dist/tex/latex/pgf/frontendlayer/tikz.sty" 1203877327 339 592cf35cba3d400082b8a9a5d0199d70 ""
  "/usr/share/texlive/texmf-dist/tex/latex/pgf/math/pgfmath.sty" 1393459310 306 0796eafca5e159e6ec2167a6d22d81b1 ""
  "/usr/share/texlive/texmf-dist/tex/latex/pgf/systemlayer/pgfsys.sty" 1393459310 443 0b2e781830192df35c0fd357cf13e26e ""
  "/usr/share/texlive/texmf-dist/tex/latex/pgf/utilities/pgfcalendar.sty" 1203877327 303 c69ee75283ad9d594be39020e0cc2fa3 ""
  "/usr/share/texlive/texmf-dist/tex/latex/pgf/utilities/pgffor.sty" 1393459310 348 8927fde343487e003b01a4c2ca34073b ""
  "/usr/share/texlive/texmf-dist/tex/latex/pgf/utilities/pgfkeys.sty" 1203727794 274 4cad6e665cc93ac2ac979039a94fa1e1 ""
  "/usr/share/texlive/texmf-dist/tex/latex/pgf/utilities/pgfrcs.sty" 1203877327 325 2bcd023400636339210573e2b3ee298b ""
  "/usr/share/texlive/texmf-dist/tex/latex/pgfgantt/pgfgantt.sty" 1372520282 42588 9b79944f9dd8c0a73703c5d004c13a73 ""
  "/usr/share/texlive/texmf-dist/tex/latex/subfigure/subfigure.cfg" 1167176009 2062 a0e7d66e09e508f51289a656aec06ed2 ""
  "/usr/share/texlive/texmf-dist/tex/latex/subfigure/subfigure.sty" 1167176009 15188 91281c7ddbccfa54a8e0c3b56ab5aa72 ""
  "/usr/share/texlive/texmf-dist/tex/latex/tools/array.sty" 1488872290 13073 1e5f0a9efb6e2cd49dc0240ce96b276c ""
  "/usr/share/texlive/texmf-dist/tex/latex/url/url.sty" 1388531844 12796 8edb7d69a20b857904dd0ea757c14ec9 ""
  "/usr/share/texlive/texmf-dist/tex/latex/xcolor/xcolor.sty" 1169481954 55224 a43bab84e0ac5e6efcaf9a98bde73a94 ""
  "/usr/share/texlive/texmf-dist/web2c/texmf.cnf" 1488872290 31080 e10744b84ae6cc364fc80325dc2b62c1 ""
  "/usr/share/texmf/fonts/enc/dvips/lm/lm-ec.enc" 1254938640 2375 baa924870cfb487815765f9094cf3728 ""
  "/usr/share/texmf/fonts/tfm/public/lm/ec-lmcsc10.tfm" 1254938640 11276 116dd5bea6621ce4a1999f96d876084c ""
  "/usr/share/texmf/fonts/tfm/public/lm/ec-lmss10.tfm" 1254938640 11176 53ebf7a171df1f9447b387b178768bb5 ""
  "/usr/share/texmf/fonts/tfm/public/lm/ec-lmss12.tfm" 1254938640 11232 955a7245396175d9219648eadc654ac9 ""
  "/usr/share/texmf/fonts/tfm/public/lm/ec-lmss17.tfm" 1254938640 11252 57c8b53a3aeebba8c17658d4221d47ec ""
  "/usr/share/texmf/fonts/tfm/public/lm/ec-lmss8.tfm" 1254938640 11180 705632ac6b4fb69204ad970192cdf4e5 ""
  "/usr/share/texmf/fonts/tfm/public/lm/ec-lmssbo10.tfm" 1254938640 11304 1bf3f99c327bf3c434fc66d6737a89a2 ""
  "/usr/share/texmf/fonts/tfm/public/lm/ec-lmssbx10.tfm" 1254938640 11168 06d87f5698fd1b642d96449b7c8d90b0 ""
  "/usr/share/texmf/fonts/tfm/public/lm/ec-lmsso10.tfm" 1254938640 11316 701b7748a8cc1abea04b4bcc027674ae ""
  "/usr/share/texmf/fonts/tfm/public/lm/ec-lmsso12.tfm" 1254938640 11352 d9e290eeb53800a380f9d1e4c40ad6c8 ""
  "/usr/share/texmf/fonts/tfm/public/lm/ec-lmtk10.tfm" 1254938640 1368 5bfeb1cf8f9f0acdb7436bfaa8e0da4e ""
  "/usr/share/texmf/fonts/tfm/public/lm/ec-lmtt10.tfm" 1254938640 1372 2ef2c2b492b3c4cd7879fe083abbb061 ""
  "/usr/share/texmf/fonts/tfm/public/lm/ec-lmtt12.tfm" 1254938640 1368 6a60e6a5e029141041d64d339b87e533 ""
  "/usr/share/texmf/fonts/tfm/public/lm/ec-lmtti10.tfm" 1254938640 1372 0dcee1a56926aed3dd9ded91b7563563 ""
  "/usr/share/texmf/fonts/tfm/public/lm/lmex10.tfm" 1254938640 992 ce925c9346c7613270a79afbee98c070 ""
  "/usr/share/texmf/fonts/tfm/public/lm/lmmi10.tfm" 1254938640 1528 6d36b2385e0ca062a654de6ac59cb34f ""
  "/usr/share/texmf/fonts/tfm/public/lm/lmmi12.tfm" 1254938640 1524 753b192b18f2991794f9d41a8228510b ""
  "/usr/share/texmf/fonts/tfm/public/lm/lmmi5.tfm" 1254938640 1508 198f5b7b99b5769126de3a533f6fc334 ""
  "/usr/share/texmf/fonts/tfm/public/lm/lmmi6.tfm" 1254938640 1512 94a3fd88c6f27dbd9ecb46987e297a4e ""
  "/usr/share/texmf/fonts/tfm/public/lm/lmmi7.tfm" 1254938640 1528 d5b028dd23da623848ef0645c96a1ed7 ""
  "/usr/share/texmf/fonts/tfm/public/lm/lmmi8.tfm" 1254938640 1520 a3fe5596932db2db2cbda300920dd4e9 ""
  "/usr/share/texmf/fonts/tfm/public/lm/lmsy10.tfm" 1254938640 1308 02cc510f9dd6012e5815d0c0ffbf6869 ""
  "/usr/share/texmf/fonts/tfm/public/lm/lmsy5.tfm" 1254938640 1296 54ed1a711e2303d5282575278e3620b0 ""
  "/usr/share/texmf/fonts/tfm/public/lm/lmsy6.tfm" 1254938640 1300 b0605d44c16c22d99dc001808e4f24ea ""
  "/usr/share/texmf/fonts/tfm/public/lm/lmsy7.tfm" 1254938640 1304 32f22a15acc296b2a4e15698403dcb88 ""
  "/usr/share/texmf/fonts/tfm/public/lm/lmsy8.tfm" 1254938640 1304 cdc9a17df9ef0d2dc320eff37bbab1c4 ""
  "/usr/share/texmf/fonts/tfm/public/lm/rm-lmr10.tfm" 1254938640 11868 4f81e9b6033c032bdaf9884f4d7ef412 ""
  "/usr/share/texmf/fonts/tfm/public/lm/rm-lmr12.tfm" 1254938640 11888 6841b91e46b65cf41a49b160e6e74130 ""
  "/usr/share/texmf/fonts/tfm/public/lm/rm-lmr5.tfm" 1254938640 11804 aefb10c002e6492c25236524a447f969 ""
  "/usr/share/texmf/fonts/tfm/public/lm/rm-lmr6.tfm" 1254938640 11836 e3b6ce3e601aec94f64a536e7f4224d5 ""
  "/usr/share/texmf/fonts/tfm/public/lm/rm-lmr7.tfm" 1254938640 11852 5a9022f105fd1ee2797df861e79ae9a0 ""
  "/usr/share/texmf/fonts/tfm/public/lm/rm-lmr8.tfm" 1254938640 11864 309fd7f43e4a0ba39f6f7644d76e8edf ""
  "/usr/share/texmf/fonts/type1/public/lm/lmcsc10.pfb" 1254938640 116427 4a5b1ccaa7cce719091920a86b58608d ""
  "/usr/share/texmf/fonts/type1/public/lm/lmss10.pfb" 1254938640 97408 f595704ec2a07246c2d6f7b602587452 ""
  "/usr/share/texmf/fonts/type1/public/lm/lmss12.pfb" 1254938640 96107 daf52840b555e3b38f9679b629b5e2df ""
  "/usr/share/texmf/fonts/type1/public/lm/lmss17.pfb" 1254938640 97155 77b0a2ea02ee9c950117adae5f41f9c9 ""
  "/usr/share/texmf/fonts/type1/public/lm/lmss8.pfb" 1254938640 94400 e33ecfb646a9f148e2e53da01a9168fe ""
  "/usr/share/texmf/fonts/type1/public/lm/lmssbo10.pfb" 1254938640 137678 2aaabe8e92a4a04077c932d1efd80d4b ""
  "/usr/share/texmf/fonts/type1/public/lm/lmssbx10.pfb" 1254938640 119663 e82fa1a58f98ccd89bdbd77311ac9cf1 ""
  "/usr/share/texmf/fonts/type1/public/lm/lmsso10.pfb" 1254938640 108953 1f7b36ba493bc956ac3c5eab8852ab76 ""
  "/usr/share/texmf/fonts/type1/public/lm/lmsso12.pfb" 1254938640 109054 a09a49a2236510c86a00b8d9e5610ab1 ""
  "/usr/share/texmf/fonts/type1/public/lm/lmtk10.pfb" 1254938640 117319 7f8361f845845ce6d5b36cbd9f9cf377 ""
  "/usr/share/texmf/fonts/type1/public/lm/lmtt10.pfb" 1254938640 113227 1010e11451afc2822c95dae77c390042 ""
  "/usr/share/texmf/fonts/type1/public/lm/lmtt12.pfb" 1254938640 110323 92daea7ca7b4120bd2b54b047c93be27 ""
  "/usr/share/texmf/fonts/type1/public/lm/lmtti10.pfb" 1254938640 98822 859130196f7a6d2d1173200c66afbcff ""
  "/usr/share/texmf/tex/latex/lm/lmodern.sty" 1256929440 1606 c17281c7cff2bbd7ff0173e1433487ec ""
  "/usr/share/texmf/tex/latex/lm/omllmm.fd" 1256929440 888 44447a3a3af84a22454ef89500942d93 ""
  "/usr/share/texmf/tex/latex/lm/omslmsy.fd" 1256929440 805 af340a8260c447aa315cfc740ff0152f ""
  "/usr/share/texmf/tex/latex/lm/omxlmex.fd" 1256929440 566 a94661f7b66063f191960bb7935b6ba2 ""
  "/usr/share/texmf/tex/latex/lm/ot1lmr.fd" 1256929440 1880 bae7b659316f7344a86218ad38b01d91 ""
  "/usr/share/texmf/tex/latex/lm/t1lmr.fd" 1256929440 1865 afbfccbe7fda9c2dc5078ad7c486bbed ""
  "/usr/share/texmf/tex/latex/lm/t1lmss.fd" 1256929440 1639 ba1c66ef577aa5cadc2c0fdc691a26ee ""
  "/usr/share/texmf/tex/latex/lm/t1lmtt.fd" 1256929440 2681 354015af3b61e7be30009f084986375a ""
  "/usr/share/texmf/web2c/texmf.cnf" 1488872290 31080 e10744b84ae6cc364fc80325dc2b62c1 ""
  "/var/lib/texmf/fonts/map/pdftex/updmap/pdftex.map" 1496689293 1561293 ee2f233f6325ee204ca709e796fd06a8 ""
  "/var/lib/texmf/web2c/pdftex/pdflatex.fmt" 1496689310 3840966 724aa1e00e76f13dfb53f5ee5b9118fc ""
  "ApostilaSocket.aux" 1504120410 10890 51365fe4baa7595400064dad386f5770 ""
  "ApostilaSocket.bbl" 1504120409 644 191e97f9b8c1ecc03ab7aab6be1033fb "bibtex ApostilaSocket"
  "ApostilaSocket.out" 1504120410 2671 7690377cb87c111392d61f4f0a3fe230 ""
  "ApostilaSocket.tex" 1504120256 76633 a4baf18b535139923f508c71cfc9e552 ""
  "ApostilaSocket.toc" 1504120410 3785 f832c01f437079fe2009dd8fe2c1a244 ""
  "malvern/tex/T1fmv.fd" 781938000 1512 96f786ba0e9e516263d1d836eab6125b ""
  (generated)
  "ApostilaSocket.out"
  "ApostilaSocket.pdf"
  "ApostilaSocket.aux"
  "ApostilaSocket.log"
  "ApostilaSocket.toc"
