\relax 
\providecommand\hyper@newdestlabel[2]{}
\catcode `"\active 
\providecommand\HyperFirstAtBeginDocument{\AtBeginDocument}
\HyperFirstAtBeginDocument{\ifx\hyper@anchor\@undefined
\global\let\oldcontentsline\contentsline
\gdef\contentsline#1#2#3#4{\oldcontentsline{#1}{#2}{#3}}
\global\let\oldnewlabel\newlabel
\gdef\newlabel#1#2{\newlabelxx{#1}#2}
\gdef\newlabelxx#1#2#3#4#5#6{\oldnewlabel{#1}{{#2}{#3}}}
\AtEndDocument{\ifx\hyper@anchor\@undefined
\let\contentsline\oldcontentsline
\let\newlabel\oldnewlabel
\fi}
\fi}
\global\let\hyper@last\relax 
\gdef\HyperFirstAtBeginDocument#1{#1}
\providecommand\HyField@AuxAddToFields[1]{}
\providecommand\HyField@AuxAddToCoFields[2]{}
\select@language{brazil}
\@writefile{toc}{\select@language{brazil}}
\@writefile{lof}{\select@language{brazil}}
\@writefile{lot}{\select@language{brazil}}
\@writefile{toc}{\contentsline {chapter}{PREF\IeC {\'A}CIO}{i}{chapter*.2}}
\@writefile{lof}{\addvspace {10\p@ }}
\@writefile{lot}{\addvspace {10\p@ }}
\citation{1}
\citation{3}
\@writefile{toc}{\contentsline {chapter}{\numberline {1}INTRODU\IeC {\c C}\IeC {\~A}O}{1}{chapter.1}}
\@writefile{lof}{\addvspace {10\p@ }}
\@writefile{lot}{\addvspace {10\p@ }}
\newlabel{c1}{{1}{1}{INTRODUÇÃO}{chapter.1}{}}
\@writefile{toc}{\contentsline {section}{\numberline {1.1}Sistema Operacional}{2}{section.1.1}}
\@writefile{toc}{\contentsline {subsection}{\numberline {1.1.1}Hist\IeC {\'o}ria do Linux}{2}{subsection.1.1.1}}
\@writefile{toc}{\contentsline {chapter}{\numberline {2}TECNOLOGIA DE SOCKET}{5}{chapter.2}}
\@writefile{lof}{\addvspace {10\p@ }}
\@writefile{lot}{\addvspace {10\p@ }}
\@writefile{toc}{\contentsline {section}{\numberline {2.1}Apresenta\IeC {\c c}\IeC {\~a}o das fun\IeC {\c c}\IeC {\~o}es}{5}{section.2.1}}
\citation{3}
\@writefile{toc}{\contentsline {subsection}{\numberline {2.1.1}Fun\IeC {\c c}\IeC {\~a}o socket()}{6}{subsection.2.1.1}}
\newlabel{socket}{{2.1.1}{6}{Função socket()}{subsection.2.1.1}{}}
\newlabel{sock_par_1}{{1}{6}{Função socket()}{Item.1}{}}
\newlabel{sock_par_2}{{2}{6}{Função socket()}{Item.2}{}}
\newlabel{sock_par_3}{{3}{6}{Função socket()}{Item.3}{}}
\@writefile{toc}{\contentsline {subsection}{\numberline {2.1.2}Fun\IeC {\c c}\IeC {\~a}o bind()}{8}{subsection.2.1.2}}
\newlabel{bind}{{2.1.2}{8}{Função bind()}{subsection.2.1.2}{}}
\newlabel{bind_par_1}{{1}{9}{Função bind()}{Item.4}{}}
\newlabel{bind_par_2}{{2}{9}{Função bind()}{Item.5}{}}
\newlabel{bind_par_3}{{3}{9}{Função bind()}{Item.6}{}}
\@writefile{toc}{\contentsline {paragraph}{O Retorno}{10}{section*.6}}
\@writefile{toc}{\contentsline {subsection}{\numberline {2.1.3}Fun\IeC {\c c}\IeC {\~a}o listen()}{10}{subsection.2.1.3}}
\newlabel{listen}{{2.1.3}{10}{Função listen()}{subsection.2.1.3}{}}
\newlabel{lstn_par_1}{{1}{11}{Função listen()}{Item.7}{}}
\newlabel{lstn_par_2}{{2}{11}{Função listen()}{Item.8}{}}
\@writefile{toc}{\contentsline {subsection}{\numberline {2.1.4}Fun\IeC {\c c}\IeC {\~a}o accept()}{11}{subsection.2.1.4}}
\newlabel{accp_par_1}{{1}{12}{Função accept()}{Item.9}{}}
\newlabel{accp_par_2}{{2}{12}{Função accept()}{Item.10}{}}
\newlabel{accp_par_3}{{3}{12}{Função accept()}{Item.11}{}}
\@writefile{toc}{\contentsline {subsection}{\numberline {2.1.5}Fun\IeC {\c c}\IeC {\~a}o connect()}{13}{subsection.2.1.5}}
\@writefile{toc}{\contentsline {subsection}{\numberline {2.1.6}Fun\IeC {\c c}\IeC {\~a}o recv() \& send() : Transmiss\IeC {\~a}o em soquetes com conex\IeC {\~a}o}{14}{subsection.2.1.6}}
\newlabel{send_par_1}{{1}{15}{Função recv() \& send() : Transmissão em soquetes com conexão}{Item.12}{}}
\newlabel{send_par_2}{{2}{15}{Função recv() \& send() : Transmissão em soquetes com conexão}{Item.13}{}}
\newlabel{send_par_3}{{3}{15}{Função recv() \& send() : Transmissão em soquetes com conexão}{Item.14}{}}
\newlabel{send_par_4}{{4}{15}{Função recv() \& send() : Transmissão em soquetes com conexão}{Item.15}{}}
\@writefile{toc}{\contentsline {subsubsection}{Algumas FLAGS}{16}{section*.7}}
\@writefile{toc}{\contentsline {subsubsection}{Retornos de send() e recv()}{17}{section*.8}}
\citation{3}
\citation{2}
\@writefile{toc}{\contentsline {chapter}{\numberline {3}APLICA\IeC {\c C}\IeC {\~A}O DO SOCKET}{19}{chapter.3}}
\@writefile{lof}{\addvspace {10\p@ }}
\@writefile{lot}{\addvspace {10\p@ }}
\@writefile{toc}{\contentsline {section}{\numberline {3.1}Lado Servidor}{20}{section.3.1}}
\newlabel{sec:servidor}{{3.1}{20}{Lado Servidor}{section.3.1}{}}
\@writefile{toc}{\contentsline {subsection}{\numberline {3.1.1}Cabe\IeC {\c c}alhos utilizados}{20}{subsection.3.1.1}}
\newlabel{s_header}{{3.1}{20}{Cabeçalhos das bibliotecas - SERVIDOR}{lstlisting.3.1}{}}
\@writefile{lol}{\contentsline {lstlisting}{\numberline {3.1}Cabe\IeC {\c c}alhos das bibliotecas - SERVIDOR}{20}{lstlisting.3.1}}
\@writefile{toc}{\contentsline {subsection}{\numberline {3.1.2}Defini\IeC {\c c}\IeC {\~o}es e macros}{21}{subsection.3.1.2}}
\newlabel{s_def}{{3.2}{21}{Definições - SERVIDOR}{lstlisting.3.2}{}}
\@writefile{lol}{\contentsline {lstlisting}{\numberline {3.2}Defini\IeC {\c c}\IeC {\~o}es - SERVIDOR}{21}{lstlisting.3.2}}
\@writefile{toc}{\contentsline {subsection}{\numberline {3.1.3}Vari\IeC {\'a}veis atribu\IeC {\'\i }das}{21}{subsection.3.1.3}}
\newlabel{s_var}{{3.3}{21}{Variáveis - SERVIDOR}{lstlisting.3.3}{}}
\@writefile{lol}{\contentsline {lstlisting}{\numberline {3.3}Vari\IeC {\'a}veis - SERVIDOR}{21}{lstlisting.3.3}}
\@writefile{toc}{\contentsline {subsection}{\numberline {3.1.4}Inicializa\IeC {\c c}\IeC {\~a}o das vari\IeC {\'a}veis}{23}{subsection.3.1.4}}
\newlabel{s_init}{{3.4}{23}{Inicialização das variáveis - SERVIDOR}{lstlisting.3.4}{}}
\@writefile{lol}{\contentsline {lstlisting}{\numberline {3.4}Inicializa\IeC {\c c}\IeC {\~a}o das vari\IeC {\'a}veis - SERVIDOR}{23}{lstlisting.3.4}}
\@writefile{toc}{\contentsline {subsection}{\numberline {3.1.5}Aplica\IeC {\c c}\IeC {\~a}o da fun\IeC {\c c}\IeC {\~a}o socket()}{23}{subsection.3.1.5}}
\newlabel{s_sock}{{3.5}{23}{Função socket() - SERVIDOR}{lstlisting.3.5}{}}
\@writefile{lol}{\contentsline {lstlisting}{\numberline {3.5}Fun\IeC {\c c}\IeC {\~a}o socket() - SERVIDOR}{23}{lstlisting.3.5}}
\@writefile{toc}{\contentsline {subsection}{\numberline {3.1.6}Aplica\IeC {\c c}\IeC {\~a}o da fun\IeC {\c c}\IeC {\~a}o bind()}{24}{subsection.3.1.6}}
\newlabel{s_bind}{{3.6}{24}{Função bind() - SERVIDOR}{lstlisting.3.6}{}}
\@writefile{lol}{\contentsline {lstlisting}{\numberline {3.6}Fun\IeC {\c c}\IeC {\~a}o bind() - SERVIDOR}{24}{lstlisting.3.6}}
\@writefile{toc}{\contentsline {subsection}{\numberline {3.1.7}Aplica\IeC {\c c}\IeC {\~a}o da fun\IeC {\c c}\IeC {\~a}o listen()}{25}{subsection.3.1.7}}
\newlabel{s_listen}{{3.7}{25}{Função listen() - SERVIDOR}{lstlisting.3.7}{}}
\@writefile{lol}{\contentsline {lstlisting}{\numberline {3.7}Fun\IeC {\c c}\IeC {\~a}o listen() - SERVIDOR}{25}{lstlisting.3.7}}
\@writefile{toc}{\contentsline {subsection}{\numberline {3.1.8}Aplica\IeC {\c c}\IeC {\~a}o das fun\IeC {\c c}\IeC {\~o}es accept() e send()}{25}{subsection.3.1.8}}
\newlabel{s_accept}{{3.8}{25}{Função accept(), send() e close() - SERVIDOR}{lstlisting.3.8}{}}
\@writefile{lol}{\contentsline {lstlisting}{\numberline {3.8}Fun\IeC {\c c}\IeC {\~a}o accept(), send() e close() - SERVIDOR}{25}{lstlisting.3.8}}
\@writefile{toc}{\contentsline {section}{\numberline {3.2}Lado Cliente}{27}{section.3.2}}
\newlabel{sec:cliente}{{3.2}{27}{Lado Cliente}{section.3.2}{}}
\@writefile{toc}{\contentsline {subsection}{\numberline {3.2.1}Vari\IeC {\'a}veis - CLIENTE}{28}{subsection.3.2.1}}
\newlabel{c_var}{{3.9}{28}{Variáveis - CLIENTE}{lstlisting.3.9}{}}
\@writefile{lol}{\contentsline {lstlisting}{\numberline {3.9}Vari\IeC {\'a}veis - CLIENTE}{28}{lstlisting.3.9}}
\@writefile{toc}{\contentsline {subsection}{\numberline {3.2.2}Inicializa\IeC {\c c}\IeC {\~a}o das vari\IeC {\'a}veis - CLIENTE}{28}{subsection.3.2.2}}
\newlabel{c_init}{{3.10}{29}{Inicialização das variáveis - CLIENTE}{lstlisting.3.10}{}}
\@writefile{lol}{\contentsline {lstlisting}{\numberline {3.10}Inicializa\IeC {\c c}\IeC {\~a}o das vari\IeC {\'a}veis - CLIENTE}{29}{lstlisting.3.10}}
\@writefile{toc}{\contentsline {subsection}{\numberline {3.2.3}Fun\IeC {\c c}\IeC {\~a}o socket() - CLIENTE}{29}{subsection.3.2.3}}
\newlabel{c_sock}{{3.11}{29}{Função socket() - CLIENTE}{lstlisting.3.11}{}}
\@writefile{lol}{\contentsline {lstlisting}{\numberline {3.11}Fun\IeC {\c c}\IeC {\~a}o socket() - CLIENTE}{29}{lstlisting.3.11}}
\@writefile{toc}{\contentsline {subsection}{\numberline {3.2.4}Fun\IeC {\c c}\IeC {\~a}o connect() - CLIENTE}{29}{subsection.3.2.4}}
\newlabel{c_conn}{{3.12}{30}{Função connect() - CLIENTE}{lstlisting.3.12}{}}
\@writefile{lol}{\contentsline {lstlisting}{\numberline {3.12}Fun\IeC {\c c}\IeC {\~a}o connect() - CLIENTE}{30}{lstlisting.3.12}}
\@writefile{toc}{\contentsline {subsection}{\numberline {3.2.5}Fun\IeC {\c c}\IeC {\~a}o recv() - CLIENTE}{30}{subsection.3.2.5}}
\newlabel{c_recv}{{3.13}{30}{Função de socket() - CLIENTE}{lstlisting.3.13}{}}
\@writefile{lol}{\contentsline {lstlisting}{\numberline {3.13}Fun\IeC {\c c}\IeC {\~a}o de socket() - CLIENTE}{30}{lstlisting.3.13}}
\@writefile{toc}{\contentsline {chapter}{\numberline {4}AN\IeC {\'A}LISE DA FUNCIONAMENTO DO CLIENTE E SERVIDOR}{31}{chapter.4}}
\@writefile{lof}{\addvspace {10\p@ }}
\@writefile{lot}{\addvspace {10\p@ }}
\@writefile{toc}{\contentsline {section}{\numberline {4.1}Portas abertas ou fechadas?}{31}{section.4.1}}
\newlabel{s_portclosed}{{4.1}{32}{Analise da porta TCP fechado - SERVIDOR}{lstlisting.4.1}{}}
\@writefile{lol}{\contentsline {lstlisting}{\numberline {4.1}Analise da porta TCP fechado - SERVIDOR}{32}{lstlisting.4.1}}
\newlabel{s_portopen}{{4.2}{32}{Analise da porta TCP aberta - SERVIDOR}{lstlisting.4.2}{}}
\@writefile{lol}{\contentsline {lstlisting}{\numberline {4.2}Analise da porta TCP aberta - SERVIDOR}{32}{lstlisting.4.2}}
\@writefile{toc}{\contentsline {section}{\numberline {4.2}An\IeC {\'a}lise do tr\IeC {\'a}fego TCP}{33}{section.4.2}}
\newlabel{3whs}{{4.3}{33}{Comando tcpdump - parte 1 : 3WHS}{lstlisting.4.3}{}}
\@writefile{lol}{\contentsline {lstlisting}{\numberline {4.3}Comando tcpdump - parte 1 : 3WHS}{33}{lstlisting.4.3}}
\bibstyle{acm}
\bibdata{ApostilaSocket}
\newlabel{msg}{{4.4}{34}{Comando tcpdump - parte 2}{lstlisting.4.4}{}}
\@writefile{lol}{\contentsline {lstlisting}{\numberline {4.4}Comando tcpdump - parte 2}{34}{lstlisting.4.4}}
\bibcite{3}{1}
\bibcite{1}{2}
\bibcite{2}{3}
\@writefile{toc}{\contentsline {chapter}{\numberline {5}Anexo}{37}{chapter.5}}
\@writefile{lof}{\addvspace {10\p@ }}
\@writefile{lot}{\addvspace {10\p@ }}
\@writefile{toc}{\contentsline {section}{\numberline {5.1}C\IeC {\'o}digo Cliente TCP - sockaddr\_in}{37}{section.5.1}}
\@writefile{toc}{\contentsline {section}{\numberline {5.2}C\IeC {\'o}digo Servidor TCP - sockaddr\_in}{40}{section.5.2}}
